| estimator   |    ExplVar |     MAE |     MSE |   MedAE |        R2 | tag          |
|-------------+------------+---------+---------+---------+-----------+--------------|
| HLNet       | -0.0892432 | 1.49817 | 3.69913 | 1.19451 | -0.127643 | scen_ed = 2  |
| HLNet       | -0.061021  | 1.53007 | 3.7416  | 1.26683 | -0.14059  | scen_ed = 4  |
| HLNet       | -0.186081  | 1.62186 | 4.17121 | 1.43661 | -0.271551 | scen_ed = 6  |
| HLNet       | -0.224475  | 1.61312 | 4.28308 | 1.27217 | -0.305656 | scen_ed = 8  |
| HLNet       | -0.104087  | 1.60052 | 4.01439 | 1.37575 | -0.223747 | scen_ed = 12 |
| HLNet       | -0.129598  | 1.58249 | 3.99524 | 1.31163 | -0.217909 | scen_ed = 16 |